KeyWord,SubjectWord,Group
e-Common Ground,newsletter,eCommon Ground Newsletter
newsletter,newsletter,eCommon Ground Newsletter
e-newsletter,newsletter,eCommon Ground Newsletter
Common Ground,newsletter,eCommon Ground Newsletter
donor email,A Closer look,Donor email
Community Insider,Conservation Community,Conservation Community Insider
Welcome,recent gift,New Donor Welcome
New donor welcome,recent gift,New Donor Welcome
Board,Board,Board of Directors email
Board Member,Board Member,Board of Directors email
Board of Directors,Board of Directors,Board of Directors email
Donation form acknowledgement,Donation form acknowledgement,Donation form Acknowledgement
Acknowledgement,Acknowledgement,Acknowledgement
eCard Email,eCard,eCard
eCards Email,eCard,eCard
eCard,eCard,eCard
eCards,eCard,eCard
Welcome Email,Welcome,Welcome
Password,Administration,Password
A Closer Look,A Closer look,Donor email
A Closer Look The Conservation Fund,A Closer look,Donor email
Thank You,Thank You,Acknowledgement
Test,Test,Test
Welcome to our online community,Welcome,Welcome
